Thành tích của học sinh - sinh viên trong các kỳ thi
…
students <- dt %>% 
  pivot_longer(cols = c(math_score, reading_score, writing_score), names_to = "subject", values_to = "score") %>% 
  separate(subject, c("subject",NA))
students

## # A tibble: 3,000 × 8
##    gender race.ethnicity parental_level_of…¹ lunch test_…² total…³ subject score
##    <chr>  <chr>          <chr>               <chr> <chr>     <dbl> <chr>   <int>
##  1 female group B        bachelor's degree   stan… none       72.7 math       72
##  2 female group B        bachelor's degree   stan… none       72.7 reading    72
##  3 female group B        bachelor's degree   stan… none       72.7 writing    74
##  4 female group C        some college        stan… comple…    82.3 math       69
##  5 female group C        some college        stan… comple…    82.3 reading    90
##  6 female group C        some college        stan… comple…    82.3 writing    88
##  7 female group B        master's degree     stan… none       92.7 math       90
##  8 female group B        master's degree     stan… none       92.7 reading    95
##  9 female group B        master's degree     stan… none       92.7 writing    93
## 10 male   group A        associate's degree  free… none       49.3 math       47
## # … with 2,990 more rows, and abbreviated variable names
## #   ¹​parental_level_of_education, ²​test_preparation_course, ³​total_score
…
